<svg xmlns="http://www.w3.org/2000/svg" viewBox="0 0 24 24">
  <path d="M12 14L20.2 6c.2-.2.5-.1.7 0l1.4 1.5c.2.2.3.5 0 .7l-10 9.6-.3.1-.4-.1-10-9.6a.5.5 0 0 1 0-.7l1.5-1.4c.2-.2.5-.3.7 0zm0 0"/>
</svg>
