<svg xmlns="http://www.w3.org/2000/svg" viewBox="0 0 24 24">
  <path d="M12 18.77h.95v1.5H12zm0-7.5h.82v1.51H12zm-4.48-3.9h1.5v.9h-1.5zm1.5 11.4h3v1.5h-3zm0-7.5h3v1.51h-3zm-1.5-3h1.5v12h-1.5zm5.23 8.23h6v6h-6zm0-7.5h6v6h-6zm-7.5-7.51h6v6h-6zm0 0"/>
</svg>
